%YAML 1.1
%TAG !u! tag:unity3d.com,2011:
--- !u!74 &7400000
AnimationClip:
  m_ObjectHideFlags: 0
  m_CorrespondingSourceObject: {fileID: 0}
  m_PrefabInstance: {fileID: 0}
  m_PrefabAsset: {fileID: 0}
  m_Name: Run
  serializedVersion: 6
  m_Legacy: 0
  m_Compressed: 0
  m_UseHighQualityCurve: 1
  m_RotationCurves: []
  m_CompressedRotationCurves: []
  m_EulerCurves: []
  m_PositionCurves: []
  m_ScaleCurves: []
  m_FloatCurves: []
  m_PPtrCurves:
  - curve:
    - time: 0
      value: {fileID: 7166236263522030466, guid: 4de760c38ab41314bbdcfb6943023452,
        type: 3}
    - time: 0.05
      value: {fileID: 2470319409956435798, guid: 4de760c38ab41314bbdcfb6943023452,
        type: 3}
    - time: 0.1
      value: {fileID: -4540918584354326388, guid: 4de760c38ab41314bbdcfb6943023452,
        type: 3}
    - time: 0.15
      value: {fileID: -4455822056875728695, guid: 4de760c38ab41314bbdcfb6943023452,
        type: 3}
    - time: 0.2
      value: {fileID: -5364790588639958657, guid: 4de760c38ab41314bbdcfb6943023452,
        type: 3}
    - time: 0.25
      value: {fileID: -1512656188830553638, guid: 4de760c38ab41314bbdcfb6943023452,
        type: 3}
    - time: 0.3
      value: {fileID: -2754230144694611447, guid: 4de760c38ab41314bbdcfb6943023452,
        type: 3}
    - time: 0.35
      value: {fileID: -2419971920513260168, guid: 4de760c38ab41314bbdcfb6943023452,
        type: 3}
    - time: 0.4
      value: {fileID: 1843850012483549754, guid: 4de760c38ab41314bbdcfb6943023452,
        type: 3}
    - time: 0.45
      value: {fileID: 241620830004830169, guid: 4de760c38ab41314bbdcfb6943023452,
        type: 3}
    - time: 0.5
      value: {fileID: -362971539341918764, guid: 4de760c38ab41314bbdcfb6943023452,
        type: 3}
    - time: 0.55
      value: {fileID: 2178398316516280758, guid: 4de760c38ab41314bbdcfb6943023452,
        type: 3}
    - time: 0.6
      value: {fileID: 8337072257484668778, guid: 4de760c38ab41314bbdcfb6943023452,
        type: 3}
    - time: 0.65
      value: {fileID: 8053272793438746089, guid: 4de760c38ab41314bbdcfb6943023452,
        type: 3}
    - time: 0.7
      value: {fileID: -6921624160112399868, guid: 4de760c38ab41314bbdcfb6943023452,
        type: 3}
    - time: 0.75
      value: {fileID: -4118378489547429740, guid: 4de760c38ab41314bbdcfb6943023452,
        type: 3}
    attribute: m_Sprite
    path: 
    classID: 212
    script: {fileID: 0}
  m_SampleRate: 20
  m_WrapMode: 0
  m_Bounds:
    m_Center: {x: 0, y: 0, z: 0}
    m_Extent: {x: 0, y: 0, z: 0}
  m_ClipBindingConstant:
    genericBindings:
    - serializedVersion: 2
      path: 0
      attribute: 0
      script: {fileID: 0}
      typeID: 212
      customType: 23
      isPPtrCurve: 1
    pptrCurveMapping:
    - {fileID: 7166236263522030466, guid: 4de760c38ab41314bbdcfb6943023452, type: 3}
    - {fileID: 2470319409956435798, guid: 4de760c38ab41314bbdcfb6943023452, type: 3}
    - {fileID: -4540918584354326388, guid: 4de760c38ab41314bbdcfb6943023452, type: 3}
    - {fileID: -4455822056875728695, guid: 4de760c38ab41314bbdcfb6943023452, type: 3}
    - {fileID: -5364790588639958657, guid: 4de760c38ab41314bbdcfb6943023452, type: 3}
    - {fileID: -1512656188830553638, guid: 4de760c38ab41314bbdcfb6943023452, type: 3}
    - {fileID: -2754230144694611447, guid: 4de760c38ab41314bbdcfb6943023452, type: 3}
    - {fileID: -2419971920513260168, guid: 4de760c38ab41314bbdcfb6943023452, type: 3}
    - {fileID: 1843850012483549754, guid: 4de760c38ab41314bbdcfb6943023452, type: 3}
    - {fileID: 241620830004830169, guid: 4de760c38ab41314bbdcfb6943023452, type: 3}
    - {fileID: -362971539341918764, guid: 4de760c38ab41314bbdcfb6943023452, type: 3}
    - {fileID: 2178398316516280758, guid: 4de760c38ab41314bbdcfb6943023452, type: 3}
    - {fileID: 8337072257484668778, guid: 4de760c38ab41314bbdcfb6943023452, type: 3}
    - {fileID: 8053272793438746089, guid: 4de760c38ab41314bbdcfb6943023452, type: 3}
    - {fileID: -6921624160112399868, guid: 4de760c38ab41314bbdcfb6943023452, type: 3}
    - {fileID: -4118378489547429740, guid: 4de760c38ab41314bbdcfb6943023452, type: 3}
  m_AnimationClipSettings:
    serializedVersion: 2
    m_AdditiveReferencePoseClip: {fileID: 0}
    m_AdditiveReferencePoseTime: 0
    m_StartTime: 0
    m_StopTime: 0.8
    m_OrientationOffsetY: 0
    m_Level: 0
    m_CycleOffset: 0
    m_HasAdditiveReferencePose: 0
    m_LoopTime: 1
    m_LoopBlend: 0
    m_LoopBlendOrientation: 0
    m_LoopBlendPositionY: 0
    m_LoopBlendPositionXZ: 0
    m_KeepOriginalOrientation: 0
    m_KeepOriginalPositionY: 1
    m_KeepOriginalPositionXZ: 0
    m_HeightFromFeet: 0
    m_Mirror: 0
  m_EditorCurves: []
  m_EulerEditorCurves: []
  m_HasGenericRootTransform: 0
  m_HasMotionFloatCurves: 0
  m_Events: []
